%YAML 1.1
%TAG !u! tag:unity3d.com,2011:
--- !u!74 &7400000
AnimationClip:
  m_ObjectHideFlags: 0
  m_PrefabParentObject: {fileID: 0}
  m_PrefabInternal: {fileID: 0}
  m_Name: uv_skill_1
  serializedVersion: 4
  m_AnimationType: 1
  m_Compressed: 0
  m_UseHighQualityCurve: 1
  m_RotationCurves: []
  m_CompressedRotationCurves: []
  m_PositionCurves: []
  m_ScaleCurves: []
  m_FloatCurves:
  - curve:
      serializedVersion: 2
      m_Curve:
      - time: 1.10000002
        value: -.349999994
        inSlope: 2.33333278
        outSlope: 2.33333278
        tangentMode: 10
      - time: 1.4000001
        value: .349999994
        inSlope: 2.33333278
        outSlope: 2.33333278
        tangentMode: 10
      m_PreInfinity: 2
      m_PostInfinity: 2
    attribute: _MainTex.offset.x
    path: 
    classID: 21
    script: {fileID: 0}
  m_PPtrCurves: []
  m_SampleRate: 60
  m_WrapMode: 0
  m_Bounds:
    m_Center: {x: 0, y: 0, z: 0}
    m_Extent: {x: 0, y: 0, z: 0}
  m_AnimationClipSettings:
    serializedVersion: 2
    m_StartTime: 0
    m_StopTime: 1
    m_OrientationOffsetY: 0
    m_Level: 0
    m_CycleOffset: 0
    m_LoopTime: 0
    m_LoopBlend: 0
    m_LoopBlendOrientation: 0
    m_LoopBlendPositionY: 0
    m_LoopBlendPositionXZ: 0
    m_KeepOriginalOrientation: 0
    m_KeepOriginalPositionY: 1
    m_KeepOriginalPositionXZ: 0
    m_HeightFromFeet: 0
    m_Mirror: 0
  m_EditorCurves:
  - curve:
      serializedVersion: 2
      m_Curve:
      - time: 1.10000002
        value: -.349999994
        inSlope: 2.33333278
        outSlope: 2.33333278
        tangentMode: 10
      - time: 1.4000001
        value: .349999994
        inSlope: 2.33333278
        outSlope: 2.33333278
        tangentMode: 10
      m_PreInfinity: 2
      m_PostInfinity: 2
    attribute: _MainTex.offset.x
    path: 
    classID: 21
    script: {fileID: 0}
  m_EulerEditorCurves: []
  m_Events: []
