%YAML 1.1
%TAG !u! tag:unity3d.com,2011:
--- !u!74 &7400000
AnimationClip:
  m_ObjectHideFlags: 0
  m_PrefabParentObject: {fileID: 0}
  m_PrefabInternal: {fileID: 0}
  m_Name: skill1_uv
  serializedVersion: 4
  m_AnimationType: 1
  m_Compressed: 0
  m_UseHighQualityCurve: 1
  m_RotationCurves: []
  m_CompressedRotationCurves: []
  m_PositionCurves: []
  m_ScaleCurves: []
  m_FloatCurves:
  - curve:
      serializedVersion: 2
      m_Curve: []
      m_PreInfinity: 2
      m_PostInfinity: 2
    attribute: _MainTex_ST.a
    path: 
    classID: 21
    script: {fileID: 0}
  - curve:
      serializedVersion: 2
      m_Curve:
      - time: .533333361
        value: .300000012
        inSlope: -1.63636363
        outSlope: -1.63636363
        tangentMode: 10
      - time: .716666698
        value: 0
        inSlope: -1.71818233
        outSlope: -1.71818233
        tangentMode: 10
      - time: .883333266
        value: -.300000012
        inSlope: -1.80000114
        outSlope: -1.80000114
        tangentMode: 10
      m_PreInfinity: 2
      m_PostInfinity: 2
    attribute: _MainTex_ST.b
    path: 
    classID: 21
    script: {fileID: 0}
  - curve:
      serializedVersion: 2
      m_Curve:
      - time: .533333361
        value: .300000012
        inSlope: -3.00000119
        outSlope: -3.00000119
        tangentMode: 10
      - time: .633333325
        value: 0
        inSlope: -2.25000119
        outSlope: -2.25000119
        tangentMode: 10
      - time: .833333194
        value: -.300000012
        inSlope: -1.50000107
        outSlope: -1.50000107
        tangentMode: 10
      m_PreInfinity: 2
      m_PostInfinity: 2
    attribute: _MainTex.offset.x
    path: 
    classID: 21
    script: {fileID: 0}
  m_PPtrCurves: []
  m_SampleRate: 60
  m_WrapMode: 0
  m_Bounds:
    m_Center: {x: 0, y: 0, z: 0}
    m_Extent: {x: 0, y: 0, z: 0}
  m_AnimationClipSettings:
    serializedVersion: 2
    m_StartTime: 0
    m_StopTime: 1
    m_OrientationOffsetY: 0
    m_Level: 0
    m_CycleOffset: 0
    m_LoopTime: 0
    m_LoopBlend: 0
    m_LoopBlendOrientation: 0
    m_LoopBlendPositionY: 0
    m_LoopBlendPositionXZ: 0
    m_KeepOriginalOrientation: 0
    m_KeepOriginalPositionY: 1
    m_KeepOriginalPositionXZ: 0
    m_HeightFromFeet: 0
    m_Mirror: 0
  m_EditorCurves:
  - curve:
      serializedVersion: 2
      m_Curve: []
      m_PreInfinity: 2
      m_PostInfinity: 2
    attribute: _MainTex_ST.a
    path: 
    classID: 21
    script: {fileID: 0}
  - curve:
      serializedVersion: 2
      m_Curve:
      - time: .533333361
        value: .300000012
        inSlope: -1.63636363
        outSlope: -1.63636363
        tangentMode: 10
      - time: .716666698
        value: 0
        inSlope: -1.71818233
        outSlope: -1.71818233
        tangentMode: 10
      - time: .883333266
        value: -.300000012
        inSlope: -1.80000114
        outSlope: -1.80000114
        tangentMode: 10
      m_PreInfinity: 2
      m_PostInfinity: 2
    attribute: _MainTex_ST.b
    path: 
    classID: 21
    script: {fileID: 0}
  - curve:
      serializedVersion: 2
      m_Curve:
      - time: .533333361
        value: .300000012
        inSlope: -3.00000119
        outSlope: -3.00000119
        tangentMode: 10
      - time: .633333325
        value: 0
        inSlope: -2.25000119
        outSlope: -2.25000119
        tangentMode: 10
      - time: .833333194
        value: -.300000012
        inSlope: -1.50000107
        outSlope: -1.50000107
        tangentMode: 10
      m_PreInfinity: 2
      m_PostInfinity: 2
    attribute: _MainTex.offset.x
    path: 
    classID: 21
    script: {fileID: 0}
  m_EulerEditorCurves: []
  m_Events: []
